{
  "swagger": "2.0",
  "info": {
    "title": "PokerPlanning Express API",
    "version": "0.1.0",
    "description": "Provide interfaces to manager poker planning",
    "license": {
      "name": "MIT",
      "url": "https://spdx.org/licenses/MIT.html"
    },
    "contact": {
      "name": "CORBINEAU Dany",
      "url": "https://dany-corbineau.fr"
    }
  },
  "host": "localhost:9030",
  "basePath": "/",
  "schemes": [
    "http"
  ],
  "securityDefinitions": {
    "securityToken": {
      "type": "apiKey",
      "in": "header",
      "name": "authorization",
      "description": "Bearer token. Exemple : TOKEN VALUE.OFMY.TOKEN"
    }
  },
  "paths": {
    "/api/auth/login": {
      "post": {
        "description": "",
        "parameters": [
          {
            "name": "body",
            "in": "body",
            "description": "Authentification data",
            "schema": {
              "type": "object",
              "properties": {
                "username": {
                  "type": "string",
                  "example": "IamTheUser"
                }
              },
              "required": [
                "username"
              ]
            }
          }
        ],
        "responses": {
          "200": {
            "description": "Token value",
            "schema": {
              "type": "object",
              "properties": {
                "token": {
                  "type": "string",
                  "example": "value of the token"
                }
              },
              "xml": {
                "name": "main"
              }
            }
          },
          "400": {
            "description": "Bad Request"
          },
          "503": {
            "description": "Service Unavailable"
          }
        }
      }
    },
    "/api/table": {
      "post": {
        "description": "",
        "parameters": [
          {
            "name": "authorization",
            "in": "header",
            "type": "string"
          }
        ],
        "responses": {
          "201": {
            "description": "Created"
          },
          "401": {
            "description": "Unauthorized"
          },
          "500": {
            "description": "Internal Server Error"
          },
          "503": {
            "description": "Service Unavailable"
          }
        },
        "security": [
          {
            "securityToken": []
          }
        ]
      }
    },
    "/api/tables": {
      "get": {
        "description": "",
        "parameters": [
          {
            "name": "authorization",
            "in": "header",
            "type": "string"
          }
        ],
        "responses": {
          "200": {
            "description": "OK"
          },
          "401": {
            "description": "Unauthorized"
          },
          "500": {
            "description": "Internal Server Error"
          },
          "503": {
            "description": "Service Unavailable"
          }
        },
        "security": [
          {
            "securityToken": []
          }
        ]
      }
    },
    "/api/table/{tableId}": {
      "get": {
        "description": "",
        "parameters": [
          {
            "name": "tableId",
            "in": "path",
            "required": true,
            "type": "string"
          },
          {
            "name": "authorization",
            "in": "header",
            "type": "string"
          }
        ],
        "responses": {
          "200": {
            "description": "OK"
          },
          "401": {
            "description": "Unauthorized"
          },
          "404": {
            "description": "Not Found"
          },
          "500": {
            "description": "Internal Server Error"
          },
          "503": {
            "description": "Service Unavailable"
          }
        }
      },
      "delete": {
        "description": "",
        "parameters": [
          {
            "name": "tableId",
            "in": "path",
            "required": true,
            "type": "string"
          },
          {
            "name": "authorization",
            "in": "header",
            "type": "string"
          }
        ],
        "responses": {
          "200": {
            "description": "OK"
          },
          "401": {
            "description": "Unauthorized"
          },
          "500": {
            "description": "Internal Server Error"
          },
          "503": {
            "description": "Service Unavailable"
          }
        }
      }
    },
    "/api/table/{tableId}/join": {
      "put": {
        "description": "",
        "parameters": [
          {
            "name": "tableId",
            "in": "path",
            "required": true,
            "type": "string"
          },
          {
            "name": "authorization",
            "in": "header",
            "type": "string"
          }
        ],
        "responses": {
          "200": {
            "description": "OK"
          },
          "401": {
            "description": "Unauthorized"
          },
          "500": {
            "description": "Internal Server Error"
          },
          "503": {
            "description": "Service Unavailable"
          }
        }
      }
    },
    "/api/table/{tableId}/changeOwner/{newUserUuid}": {
      "put": {
        "description": "",
        "parameters": [
          {
            "name": "tableId",
            "in": "path",
            "required": true,
            "type": "string"
          },
          {
            "name": "newUserUuid",
            "in": "path",
            "required": true,
            "type": "string"
          },
          {
            "name": "authorization",
            "in": "header",
            "type": "string"
          }
        ],
        "responses": {
          "200": {
            "description": "OK"
          },
          "401": {
            "description": "Unauthorized"
          },
          "500": {
            "description": "Internal Server Error"
          },
          "503": {
            "description": "Service Unavailable"
          }
        }
      }
    },
    "/api/table/{tableId}/ban/{userUuid}": {
      "put": {
        "description": "",
        "parameters": [
          {
            "name": "tableId",
            "in": "path",
            "required": true,
            "type": "string"
          },
          {
            "name": "userUuid",
            "in": "path",
            "required": true,
            "type": "string"
          },
          {
            "name": "authorization",
            "in": "header",
            "type": "string"
          }
        ],
        "responses": {
          "200": {
            "description": "OK"
          },
          "401": {
            "description": "Unauthorized"
          },
          "500": {
            "description": "Internal Server Error"
          },
          "503": {
            "description": "Service Unavailable"
          }
        }
      }
    },
    "/api/table/{tableId}/unban/{userUuid}": {
      "put": {
        "description": "",
        "parameters": [
          {
            "name": "tableId",
            "in": "path",
            "required": true,
            "type": "string"
          },
          {
            "name": "userUuid",
            "in": "path",
            "required": true,
            "type": "string"
          },
          {
            "name": "authorization",
            "in": "header",
            "type": "string"
          }
        ],
        "responses": {
          "200": {
            "description": "OK"
          },
          "401": {
            "description": "Unauthorized"
          },
          "500": {
            "description": "Internal Server Error"
          },
          "503": {
            "description": "Service Unavailable"
          }
        }
      }
    },
    "/api/table/{tableId}/vote/{voteValue}": {
      "put": {
        "description": "",
        "parameters": [
          {
            "name": "tableId",
            "in": "path",
            "required": true,
            "type": "string"
          },
          {
            "name": "voteValue",
            "in": "path",
            "required": true,
            "type": "string"
          },
          {
            "name": "authorization",
            "in": "header",
            "type": "string"
          }
        ],
        "responses": {
          "200": {
            "description": "OK"
          },
          "401": {
            "description": "Unauthorized"
          },
          "500": {
            "description": "Internal Server Error"
          },
          "503": {
            "description": "Service Unavailable"
          }
        }
      }
    },
    "/api/table/{tableId}/revealed": {
      "put": {
        "description": "",
        "parameters": [
          {
            "name": "tableId",
            "in": "path",
            "required": true,
            "type": "string"
          },
          {
            "name": "authorization",
            "in": "header",
            "type": "string"
          }
        ],
        "responses": {
          "200": {
            "description": "OK"
          },
          "401": {
            "description": "Unauthorized"
          },
          "500": {
            "description": "Internal Server Error"
          },
          "503": {
            "description": "Service Unavailable"
          }
        }
      }
    },
    "/api/table/{tableId}/cleanRevealed": {
      "put": {
        "description": "",
        "parameters": [
          {
            "name": "tableId",
            "in": "path",
            "required": true,
            "type": "string"
          },
          {
            "name": "authorization",
            "in": "header",
            "type": "string"
          }
        ],
        "responses": {
          "200": {
            "description": "OK"
          },
          "401": {
            "description": "Unauthorized"
          },
          "500": {
            "description": "Internal Server Error"
          },
          "503": {
            "description": "Service Unavailable"
          }
        }
      }
    }
  }
}